Seminario Fuentes de datos Biómédicas y Web Semántica
…
3. Relación entre esperanza de vida y calidad

EsperanzayCalidad<- tablaEsperanzaDeVidaFinal%>%
  left_join(x=., y=tablaCalidadDeAguaFinal, by=c("ComunidadAutonoma"))%>%
  group_by(ComunidadAutonoma) %>%
  drop_na()
EsperanzayCalidadFinal <- pivot_longer(data = EsperanzayCalidad, names_to = "CalidadAgua", values_to = "ValoresCalidadAgua", cols = c(Aguas2,Aguas1,Aguas0,AguasSCF))
EsperanzayCalidadFinal

## # A tibble: 48 × 8
## # Groups:   ComunidadAutonoma [12]
##     Anio ComunidadAutonoma    EsperanzaDeVida NumdeMunicipios ZonasdeBaño
##    <dbl> <chr>                          <dbl>           <int>       <int>
##  1  2020 ANDALUCÍA                       28.0              58          63
##  2  2020 ANDALUCÍA                       28.0              58          63
##  3  2020 ANDALUCÍA                       28.0              58          63
##  4  2020 ANDALUCÍA                       28.0              58          63
##  5  2020 ARAGÓN                          28.4              11          11
##  6  2020 ARAGÓN                          28.4              11          11
##  7  2020 ARAGÓN                          28.4              11          11
##  8  2020 ARAGÓN                          28.4              11          11
##  9  2020 CASTILLA - LA MANCHA            27.5              28          39
## 10  2020 CASTILLA - LA MANCHA            27.5              28          39
## # ℹ 38 more rows
## # ℹ 3 more variables: PuntosdeMuestreo <int>, CalidadAgua <chr>,
## #   ValoresCalidadAgua <int>
…
tablaend<- EsperanzayCantidad %>% 
  left_join(x=., y=CantidadyPresupuesto, by=c("Cantidad","ComunidadAutonoma","Anio")) %>%
  left_join(x=., y=EsperanzayCalidadFinal, by=c("ComunidadAutonoma")) %>% 
  select(-"NumdeMunicipios",- "ZonasdeBaño",-"PuntosdeMuestreo") %>% 
  mutate(EsperanzaDeVida = coalesce(EsperanzaDeVida.x, EsperanzaDeVida.y)) %>%
  select(-EsperanzaDeVida.x, -EsperanzaDeVida.y)%>%
  mutate(Anio = coalesce(Anio.x, Anio.y))%>%
  select(-Anio.x, -Anio.y)%>%
  select(Anio, ComunidadAutonoma, everything())%>%
  drop_na()
tablaend

## # A tibble: 48 × 7
## # Groups:   ComunidadAutonoma [12]
##     Anio ComunidadAutonoma   Cantidad Presupuesto CalidadAgua ValoresCalidadAgua
##    <dbl> <chr>                  <dbl>       <int> <chr>                    <int>
##  1  2020 ANDALUCÍA            262867        43361 Aguas2                       3
##  2  2020 ANDALUCÍA            262867        43361 Aguas1                      36
##  3  2020 ANDALUCÍA            262867        43361 Aguas0                      27
##  4  2020 ANDALUCÍA            262867        43361 AguasSCF                     4
##  5  2020 ARAGÓN                38689.         691 Aguas2                       3
##  6  2020 ARAGÓN                38689.         691 Aguas1                       7
##  7  2020 ARAGÓN                38689.         691 Aguas0                       1
##  8  2020 ARAGÓN                38689.         691 AguasSCF                     1
##  9  2020 CASTILLA - LA MANC…   60920.        2397 Aguas2                      24
## 10  2020 CASTILLA - LA MANC…   60920.        2397 Aguas1                       7
## # ℹ 38 more rows
## # ℹ 1 more variable: EsperanzaDeVida <dbl>
…
